0,
0,
0,
0,
0,
0,
0,
0,
0,
0,
0,
0,
0,
0,
0,
0,
0,
0,
0,
0,
0,
0,
0,
0,
0,
0,
0,
0,
0,
0,
0,
0,
0,
0,
0,
0,
0,
0,
0,
0,
0,
0,
0,
0,
0,
0,
0,
0,
0,
0,
0,
0,
0,
0,
0,
0,
0,
0,
0,
0,
0,
0,
0,
0,
0,
0,
0,
0,
0,
0,
0,
0,
0,
0,
0,
0,
0,
0,
0,
0,
0,
159,
128,
130,
67,
36,
26,
12,
0,
128,
28,
128,
128,
83,
49,
19,
2,
0,
128,
0,
0,
128,
32,
53,
0,
0,
0,
128,
0,
0,
0,
0,
0,
0,
0,
0,
128,
0,
0,
0,
0,
0,
0,
0,
0,
128,
0,
0,
0,
0,
0,
0,
0,
0,
128,
0,
0,
0,
0,
0,
0,
0,
0,
128,
128,
128,
0,
0,
0,
0,
0,
0,
128,
128,
128,
128,
128,
128,
128,
128,
128,
128,
340,
331,
284,
268,
218,
190,
190,
192,
256,
285,
292,
290,
262,
207,
169,
185,
163,
256,
183,
164,
256,
256,
209,
183,
161,
157,
152,
107,
88,
85,
256,
172,
186,
156,
148,
141,
44,
42,
40,
49,
38,
131,
132,
128,
104,
0,
0,
0,
0,
0,
41,
85,
91,
82,
0,
0,
0,
0,
0,
0,
0,
0,
0,
256,
256,
0,
0,
0,
0,
0,
0,
0,
256,
256,
256,
256,
0,
0,
0,
0,
0,
467,
467,
459,
428,
379,
351,
333,
326,
384,
478,
476,
465,
413,
396,
356,
329,
322,
384,
409,
416,
423,
384,
392,
340,
309,
311,
316,
306,
312,
285,
384,
384,
335,
311,
293,
285,
248,
243,
223,
236,
384,
298,
315,
287,
282,
237,
235,
207,
207,
212,
210,
251,
271,
272,
219,
184,
183,
194,
194,
197,
226,
237,
254,
384,
384,
164,
162,
161,
161,
205,
207,
220,
384,
384,
384,
384,
110,
108,
177,
175,
175,
598,
598,
592,
588,
560,
499,
472,
464,
512,
603,
601,
600,
590,
560,
502,
474,
463,
512,
603,
611,
613,
597,
544,
524,
485,
461,
452,
513,
517,
545,
553,
512,
521,
470,
442,
438,
416,
421,
437,
452,
512,
512,
462,
437,
417,
379,
377,
371,
349,
364,
512,
424,
443,
414,
369,
369,
366,
340,
339,
344,
344,
382,
401,
512,
512,
357,
327,
327,
337,
340,
363,
374,
512,
512,
512,
321,
320,
320,
321,
353,
355,
723,
723,
722,
721,
718,
692,
623,
595,
640,
731,
730,
730,
723,
719,
691,
624,
596,
640,
727,
736,
736,
732,
722,
690,
629,
600,
591,
711,
717,
736,
747,
728,
673,
653,
615,
590,
635,
636,
642,
673,
683,
640,
649,
598,
573,
532,
534,
542,
563,
577,
640,
640,
590,
563,
506,
506,
503,
497,
475,
490,
640,
549,
570,
640,
640,
496,
494,
489,
466,
471,
473,
509,
640,
640,
640,
487,
459,
459,
468,
472,
494,
768,
853,
853,
852,
851,
849,
822,
748,
768,
860,
860,
854,
853,
851,
849,
822,
749,
768,
864,
864,
863,
862,
854,
850,
822,
751,
722,
856,
857,
859,
869,
865,
854,
821,
756,
726,
829,
829,
834,
859,
878,
836,
803,
781,
745,
759,
759,
761,
768,
803,
812,
768,
777,
726,
652,
653,
656,
666,
689,
703,
768,
768,
718,
768,
633,
632,
629,
622,
600,
616,
768,
674,
768,
768,
768,
623,
620,
614,
592,
597,
768,
896,
896,
896,
896,
896,
896,
896,
953,
896,
896,
896,
896,
983,
982,
981,
979,
953,
896,
896,
896,
992,
985,
984,
982,
979,
952,
876,
984,
984,
985,
996,
994,
985,
981,
952,
878,
983,
984,
987,
991,
1001,
997,
992,
951,
884,
941,
941,
939,
955,
982,
1007,
965,
933,
926,
886,
886,
886,
888,
895,
932,
942,
896,
896,
896,
774,
776,
780,
790,
815,
828,
896,
896,
896,
896,
896,
757,
754,
747,
726,
741,
896,
1023,
1023,
1023,
1023,
1023,
1023,
1023,
1023,
1023,
1023,
1023,
1023,
1023,
1023,
1023,
1023,
1023,
1023,
1023,
1023,
1023,
1023,
1023,
1023,
1023,
1023,
1023,
1023,
1023,
1023,
1023,
1023,
1023,
1023,
1023,
1023,
1023,
1023,
1023,
1023,
1023,
1023,
1023,
1023,
1023,
1023,
1023,
1023,
1023,
1023,
1023,
1023,
1023,
1023,
1023,
1023,
1023,
1023,
1023,
1023,
1023,
1023,
1023,
1023,
1023,
1023,
1013,
1014,
1022,
1023,
1023,
1023,
1023,
1023,
1023,
900,
904,
916,
941,
954,
1023
