digraph dependencies {
    label="\nPackage ti.xdais.dm.examples.viddec3_copy Dependency Graph";
    size="7.5,10";
    rankdir=LR;
    ranksep=".75";
    concentrate="true";
    node [fixedsize=true, width=1.5, style=filled, color=black];
    node [font=Helvetica, fontsize=12, fillcolor=lightgrey];
    ti_xdais_dm_examples_viddec3_copy [shape=record,label="ti.xdais.dm.examples.viddec3_copy|1, 0, 0", URL="package.rel.xml"];
    node [fontsize=10, fillcolor=white];

    edge [style=solid, color=blue]

    edge [style=solid, color=lightgrey]
    xdc [shape=record,label="xdc|1, 1, 1", URL="../../../../../../../../../../../../rtree/library/trees/xdcprod/xdcprod-p32/product/Linux/xdctools_3_23_00_32/packages/xdc/package/package.rel.svg"];
    ti_xdais_dm_examples_viddec3_copy -> xdc;
    xdc_services_global [shape=record,label="xdc.services.global|1, 0, 0", URL="../../../../../../../../../../../../rtree/library/trees/xdcprod/xdcprod-p32/product/Linux/xdctools_3_23_00_32/packages/xdc/services/global/package/package.rel.svg"];
    ti_xdais_dm_examples_viddec3_copy -> xdc_services_global;
    xdc_bld [shape=record,label="xdc.bld|1, 0, 2", URL="../../../../../../../../../../../../rtree/library/trees/xdcprod/xdcprod-p32/product/Linux/xdctools_3_23_00_32/packages/xdc/bld/package/package.rel.svg"];
    ti_xdais_dm_examples_viddec3_copy -> xdc_bld;
    tisb_coverity_filters [shape=record,label="tisb.coverity.filters|1, 0, 0", URL="../../../../../../../../../../../../toolsrc/library/toolsE35/packages/tisb/coverity/filters/package/package.rel.svg"];
    ti_xdais_dm_examples_viddec3_copy -> tisb_coverity_filters;
    tisb_misra_filters [shape=record,label="tisb.misra.filters|1, 0, 0", URL="../../../../../../../../../../../../toolsrc/library/toolsE35/packages/tisb/misra/filters/package/package.rel.svg"];
    ti_xdais_dm_examples_viddec3_copy -> tisb_misra_filters;
    ti_targets [shape=record,label="ti.targets|1, 0, 3", URL="../../../../../../../../../../../../rtree/library/trees/xdcprod/xdcprod-p32/product/Linux/xdctools_3_23_00_32/packages/ti/targets/package/package.rel.svg"];
    ti_xdais_dm_examples_viddec3_copy -> ti_targets;
    ti_targets_elf [shape=record,label="ti.targets.elf|1, 0, 0", URL="../../../../../../../../../../../../rtree/library/trees/xdcprod/xdcprod-p32/product/Linux/xdctools_3_23_00_32/packages/ti/targets/elf/package/package.rel.svg"];
    ti_xdais_dm_examples_viddec3_copy -> ti_targets_elf;
    ti_targets_arm [shape=record,label="ti.targets.arm|2, 0, 1, 0", URL="../../../../../../../../../../../../rtree/library/trees/xdcprod/xdcprod-p32/product/Linux/xdctools_3_23_00_32/packages/ti/targets/arm/package/package.rel.svg"];
    ti_xdais_dm_examples_viddec3_copy -> ti_targets_arm;
    ti_targets_arm_elf [shape=record,label="ti.targets.arm.elf|1, 0, 0", URL="../../../../../../../../../../../../rtree/library/trees/xdcprod/xdcprod-p32/product/Linux/xdctools_3_23_00_32/packages/ti/targets/arm/elf/package/package.rel.svg"];
    ti_xdais_dm_examples_viddec3_copy -> ti_targets_arm_elf;
    gnu_targets [shape=record,label="gnu.targets|1, 0, 1", URL="../../../../../../../../../../../../rtree/library/trees/xdcprod/xdcprod-p32/product/Linux/xdctools_3_23_00_32/packages/gnu/targets/package/package.rel.svg"];
    ti_xdais_dm_examples_viddec3_copy -> gnu_targets;
    gnu_targets_arm [shape=record,label="gnu.targets.arm|1, 0, 0, 0", URL="../../../../../../../../../../../../rtree/library/trees/xdcprod/xdcprod-p32/product/Linux/xdctools_3_23_00_32/packages/gnu/targets/arm/package/package.rel.svg"];
    ti_xdais_dm_examples_viddec3_copy -> gnu_targets_arm;
    ti_xdais_qualiti [shape=record,label="ti.xdais.qualiti|1, 0, 0", URL="../../../../qualiti/package/package.rel.svg"];
    ti_xdais_dm_examples_viddec3_copy -> ti_xdais_qualiti;
    xdc_shelf [shape=record,label="xdc.shelf|1, 0, 0", URL="../../../../../../../../../../../../rtree/library/trees/xdcprod/xdcprod-p32/product/Linux/xdctools_3_23_00_32/packages/xdc/shelf/package/package.rel.svg"];
    ti_xdais_dm_examples_viddec3_copy -> xdc_shelf;
    xdc_services_intern_gen [shape=record,label="xdc.services.intern.gen|1, 0, 0, 0", URL="../../../../../../../../../../../../rtree/library/trees/xdcprod/xdcprod-p32/product/Linux/xdctools_3_23_00_32/packages/xdc/services/intern/gen/package/package.rel.svg"];
    ti_xdais_dm_examples_viddec3_copy -> xdc_services_intern_gen;
    xdc_services_intern_xsr [shape=record,label="xdc.services.intern.xsr|1, 0, 0", URL="../../../../../../../../../../../../rtree/library/trees/xdcprod/xdcprod-p32/product/Linux/xdctools_3_23_00_32/packages/xdc/services/intern/xsr/package/package.rel.svg"];
    ti_xdais_dm_examples_viddec3_copy -> xdc_services_intern_xsr;
    xdc_services_intern_cmd [shape=record,label="xdc.services.intern.cmd|1, 0, 0, 0", URL="../../../../../../../../../../../../rtree/library/trees/xdcprod/xdcprod-p32/product/Linux/xdctools_3_23_00_32/packages/xdc/services/intern/cmd/package/package.rel.svg"];
    ti_xdais_dm_examples_viddec3_copy -> xdc_services_intern_cmd;
    xdc_services_spec [shape=record,label="xdc.services.spec|1, 0, 0, 0", URL="../../../../../../../../../../../../rtree/library/trees/xdcprod/xdcprod-p32/product/Linux/xdctools_3_23_00_32/packages/xdc/services/spec/package/package.rel.svg"];
    ti_xdais_dm_examples_viddec3_copy -> xdc_services_spec;
    ti_xdais_dm [shape=record,label="ti.xdais.dm|1, 0, 7", URL="../../../package/package.rel.svg"];
    ti_xdais_dm_examples_viddec3_copy -> ti_xdais_dm;
    ti_xdais [shape=record,label="ti.xdais|1, 2.0, 1", URL="../../../../package/package.rel.svg"];
    ti_xdais_dm_examples_viddec3_copy -> ti_xdais;

    edge [style=solid, color=blue]

    edge [style=solid, color=lightgrey]
    ti_xdais -> xdc_services_global;
    ti_xdais -> tisb_coverity_filters;
    ti_xdais -> tisb_misra_filters;
    ti_xdais -> ti_targets;
    ti_xdais -> ti_targets_elf;
    ti_xdais -> ti_targets_arm;
    ti_xdais -> ti_targets_arm_elf;
    ti_xdais -> gnu_targets;
    ti_xdais -> gnu_targets_arm;
    ti_xdais -> xdc_shelf;
    ti_xdais -> xdc_services_intern_gen;
    ti_xdais -> xdc_services_intern_xsr;
    ti_xdais -> xdc_services_intern_cmd;
    ti_xdais -> xdc_services_spec;

    edge [style=solid, color=blue]

    edge [style=solid, color=lightgrey]
    ti_xdais_dm -> xdc_services_global;
    ti_xdais_dm -> tisb_coverity_filters;
    ti_xdais_dm -> tisb_misra_filters;
    ti_xdais_dm -> ti_targets;
    ti_xdais_dm -> ti_targets_elf;
    ti_xdais_dm -> ti_targets_arm;
    ti_xdais_dm -> ti_targets_arm_elf;
    ti_xdais_dm -> gnu_targets;
    ti_xdais_dm -> gnu_targets_arm;
    ti_xdais_dm -> xdc_shelf;
    ti_xdais_dm -> xdc_services_intern_gen;
    ti_xdais_dm -> xdc_services_intern_xsr;
    ti_xdais_dm -> xdc_services_intern_cmd;
    ti_xdais_dm -> xdc_services_spec;

    edge [style=solid, color=blue]
    xdc_services_spec -> xdc_shelf;

    edge [style=solid, color=lightgrey]
    xdc_utils_tconf [shape=record,label="xdc.utils.tconf|not found"style=rounded, ];
    xdc_services_spec -> xdc_utils_tconf;
    xdc_services_spec -> xdc_services_global;
    xdc_services_spec -> xdc_services_intern_gen;
    xdc_services_spec -> xdc_shelf;
    xdc_services_spec -> xdc_services_intern_xsr;
    xdc_services_spec -> xdc_services_intern_cmd;

    edge [style=solid, color=blue]

    edge [style=solid, color=lightgrey]

    edge [style=solid, color=blue]
    xdc_services_intern_cmd -> xdc_shelf;
    xdc_services_intern_cmd -> xdc_services_spec;
    xdc_services_intern_cmd -> xdc_services_global;
    xdc_services_intern_cmd -> xdc_services_intern_gen;

    edge [style=solid, color=lightgrey]
    xdc_services_intern_cmd -> xdc_utils_tconf;
    xdc_services_intern_cmd -> xdc_services_global;
    xdc_services_intern_cmd -> xdc_services_intern_gen;
    xdc_services_intern_cmd -> xdc_shelf;
    xdc_services_intern_cmd -> xdc_services_intern_xsr;
    xdc_services_intern_cmd -> xdc_services_spec;

    edge [style=solid, color=blue]
    xdc_services_intern_xsr -> xdc_services_global;

    edge [style=solid, color=lightgrey]
    xdc_services_intern_xsr -> xdc_utils_tconf;
    xdc_services_intern_xsr -> xdc_services_global;
    xdc_services_intern_xsr -> xdc_services_intern_gen;
    xdc_services_intern_xsr -> xdc_shelf;
    xdc_services_intern_xsr -> xdc_services_spec;
    xdc_services_intern_xsr -> xdc_services_intern_cmd;

    edge [style=solid, color=blue]
    xdc_services_intern_gen -> xdc_shelf;
    xdc_services_intern_gen -> xdc_services_spec;
    xdc_services_intern_gen -> xdc_services_global;
    xdc_services_intern_gen -> xdc_services_intern_xsr;

    edge [style=solid, color=lightgrey]
    xdc_services_intern_gen -> xdc_utils_tconf;
    xdc_services_intern_gen -> xdc_services_global;
    xdc_services_intern_gen -> xdc_shelf;
    xdc_services_intern_gen -> xdc_services_intern_xsr;
    xdc_services_intern_gen -> xdc_services_spec;
    xdc_services_intern_gen -> xdc_services_intern_cmd;

    edge [style=solid, color=blue]

    edge [style=solid, color=lightgrey]
    xdc_shelf -> xdc_utils_tconf;
    xdc_shelf -> xdc_services_global;
    xdc_shelf -> xdc_services_intern_gen;
    xdc_shelf -> xdc_services_intern_xsr;
    xdc_shelf -> xdc_services_spec;
    xdc_shelf -> xdc_services_intern_cmd;

    edge [style=solid, color=blue]
    xdc_tools_sg [shape=record,label="xdc.tools.sg|1, 0, 0, 0", URL="../../../../../../../../../../../../rtree/library/trees/xdcprod/xdcprod-p32/product/Linux/xdctools_3_23_00_32/packages/xdc/tools/sg/package/package.rel.svg"];
    ti_xdais_qualiti -> xdc_tools_sg;

    edge [style=solid, color=lightgrey]

    edge [style=solid, color=blue]

    edge [style=solid, color=lightgrey]
    xdc_tools_sg -> xdc_utils_tconf;
    xdc_tools_sg -> xdc_services_global;
    xdc_tools_sg -> gnu_targets;
    microsoft_targets [shape=record,label="microsoft.targets|1, 0, 2, 0", URL="../../../../../../../../../../../../rtree/library/trees/xdcprod/xdcprod-p32/product/Linux/xdctools_3_23_00_32/packages/microsoft/targets/package/package.rel.svg"];
    xdc_tools_sg -> microsoft_targets;
    xdc_tools_sg -> xdc_services_intern_gen;
    xdc_tools_sg -> xdc_shelf;
    xdc_tools_sg -> xdc_services_intern_xsr;
    xdc_tools_sg -> xdc_services_spec;
    xdc_tools_sg -> xdc_services_intern_cmd;

    edge [style=solid, color=blue]

    edge [style=solid, color=lightgrey]
    microsoft_targets -> xdc_services_global;
    microsoft_targets -> xdc_services_intern_gen;
    microsoft_targets -> xdc_shelf;
    microsoft_targets -> xdc_services_intern_cmd;
    microsoft_targets -> xdc_services_spec;
    microsoft_targets -> xdc_services_intern_xsr;

    edge [style=solid, color=blue]
    gnu_targets_arm -> gnu_targets;

    edge [style=solid, color=lightgrey]
    gnu_targets_arm -> xdc_services_global;
    gnu_targets_arm -> gnu_targets;
    gnu_targets_arm -> xdc_services_intern_gen;
    gnu_targets_arm -> xdc_shelf;
    gnu_targets_arm -> xdc_services_intern_cmd;
    gnu_targets_arm -> xdc_services_spec;
    gnu_targets_arm -> xdc_services_intern_xsr;

    edge [style=solid, color=blue]

    edge [style=solid, color=lightgrey]
    gnu_targets -> xdc_services_global;
    gnu_targets -> xdc_services_intern_gen;
    gnu_targets -> xdc_shelf;
    gnu_targets -> xdc_services_intern_cmd;
    gnu_targets -> xdc_services_spec;
    gnu_targets -> xdc_services_intern_xsr;

    edge [style=solid, color=blue]
    ti_targets_arm_elf -> ti_targets;

    edge [style=solid, color=lightgrey]
    ti_targets_arm_elf -> xdc_services_global;
    ti_targets_arm_elf -> ti_targets;
    ti_targets_arm_elf -> ti_targets_arm;
    ti_targets_arm_elf -> xdc_services_intern_gen;
    ti_targets_arm_elf -> xdc_shelf;
    ti_targets_arm_elf -> xdc_services_intern_cmd;
    ti_targets_arm_elf -> xdc_services_spec;
    ti_targets_arm_elf -> xdc_services_intern_xsr;

    edge [style=solid, color=blue]
    ti_targets_arm -> ti_targets;

    edge [style=solid, color=lightgrey]
    ti_targets_arm -> xdc_services_global;
    ti_targets_arm -> ti_targets;
    ti_targets_arm -> xdc_services_intern_gen;
    ti_targets_arm -> xdc_shelf;
    ti_targets_arm -> xdc_services_intern_cmd;
    ti_targets_arm -> xdc_services_spec;
    ti_targets_arm -> xdc_services_intern_xsr;

    edge [style=solid, color=blue]

    edge [style=solid, color=lightgrey]
    ti_targets_elf -> xdc_services_global;
    ti_targets_elf -> ti_targets;
    ti_targets_elf -> xdc_services_intern_gen;
    ti_targets_elf -> xdc_shelf;
    ti_targets_elf -> xdc_services_intern_cmd;
    ti_targets_elf -> xdc_services_spec;
    ti_targets_elf -> xdc_services_intern_xsr;

    edge [style=solid, color=blue]

    edge [style=solid, color=lightgrey]
    ti_targets -> xdc_services_global;
    ti_targets -> xdc_services_intern_gen;
    ti_targets -> xdc_shelf;
    ti_targets -> xdc_services_intern_cmd;
    ti_targets -> xdc_services_spec;
    ti_targets -> xdc_services_intern_xsr;

    edge [style=solid, color=blue]

    edge [style=solid, color=lightgrey]
    tisb_misra_filters -> xdc_services_global;
    tisb_misra_filters -> xdc_shelf;
    tisb_misra_filters -> xdc_services_intern_gen;
    tisb_misra_filters -> xdc_services_intern_xsr;
    tisb_misra_filters -> xdc_services_intern_cmd;
    tisb_misra_filters -> xdc_services_spec;

    edge [style=solid, color=blue]

    edge [style=solid, color=lightgrey]
    tisb_coverity_filters -> xdc_services_global;
    tisb_coverity_filters -> xdc_shelf;
    tisb_coverity_filters -> xdc_services_intern_gen;
    tisb_coverity_filters -> xdc_services_intern_xsr;
    tisb_coverity_filters -> xdc_services_intern_cmd;
    tisb_coverity_filters -> xdc_services_spec;

    edge [style=solid, color=blue]
    xdc_bld -> xdc_services_global;
    xdc_bld -> xdc_services_intern_cmd;

    edge [style=solid, color=lightgrey]
    xdc_bld -> xdc_utils_tconf;
    xdc_bld -> xdc;
    xdc_bld -> xdc_services_global;
    xdc_bld -> xdc_services_intern_gen;
    xdc_bld -> xdc_shelf;
    xdc_bld -> xdc_services_intern_xsr;
    xdc_bld -> xdc_services_spec;
    xdc_bld -> xdc_services_intern_cmd;

    edge [style=solid, color=blue]

    edge [style=solid, color=lightgrey]
    xdc_services_global -> xdc_utils_tconf;
    xdc_services_global -> xdc_services_intern_gen;
    xdc_services_global -> xdc_shelf;
    xdc_services_global -> xdc_services_intern_xsr;
    xdc_services_global -> xdc_services_spec;
    xdc_services_global -> xdc_services_intern_cmd;

    edge [style=solid, color=blue]

    edge [style=solid, color=lightgrey]
    xdc -> xdc_utils_tconf;
    xdc -> xdc_services_global;
}
