%!PS-Adobe-2.0
%%Creator: dot version 2.2.1 (Fri Jul 15 08:39:01 UTC 2005)
%%For: (xlibrary) xlibrary group account,xlibrary,805-562-5100,a0324034
%%Title: G
%%Pages: (atend)
%%BoundingBox: 35 35 211 156
%%EndComments
save
%%BeginProlog
/DotDict 200 dict def
DotDict begin

/setupLatin1 {
mark
/EncodingVector 256 array def
 EncodingVector 0

ISOLatin1Encoding 0 255 getinterval putinterval

EncodingVector
  dup 306 /AE
  dup 301 /Aacute
  dup 302 /Acircumflex
  dup 304 /Adieresis
  dup 300 /Agrave
  dup 305 /Aring
  dup 303 /Atilde
  dup 307 /Ccedilla
  dup 311 /Eacute
  dup 312 /Ecircumflex
  dup 313 /Edieresis
  dup 310 /Egrave
  dup 315 /Iacute
  dup 316 /Icircumflex
  dup 317 /Idieresis
  dup 314 /Igrave
  dup 334 /Udieresis
  dup 335 /Yacute
  dup 376 /thorn
  dup 337 /germandbls
  dup 341 /aacute
  dup 342 /acircumflex
  dup 344 /adieresis
  dup 346 /ae
  dup 340 /agrave
  dup 345 /aring
  dup 347 /ccedilla
  dup 351 /eacute
  dup 352 /ecircumflex
  dup 353 /edieresis
  dup 350 /egrave
  dup 355 /iacute
  dup 356 /icircumflex
  dup 357 /idieresis
  dup 354 /igrave
  dup 360 /dcroat
  dup 361 /ntilde
  dup 363 /oacute
  dup 364 /ocircumflex
  dup 366 /odieresis
  dup 362 /ograve
  dup 365 /otilde
  dup 370 /oslash
  dup 372 /uacute
  dup 373 /ucircumflex
  dup 374 /udieresis
  dup 371 /ugrave
  dup 375 /yacute
  dup 377 /ydieresis  

% Set up ISO Latin 1 character encoding
/starnetISO {
        dup dup findfont dup length dict begin
        { 1 index /FID ne { def }{ pop pop } ifelse
        } forall
        /Encoding EncodingVector def
        currentdict end definefont
} def
/Times-Roman starnetISO def
/Times-Italic starnetISO def
/Times-Bold starnetISO def
/Times-BoldItalic starnetISO def
/Helvetica starnetISO def
/Helvetica-Oblique starnetISO def
/Helvetica-Bold starnetISO def
/Helvetica-BoldOblique starnetISO def
/Courier starnetISO def
/Courier-Oblique starnetISO def
/Courier-Bold starnetISO def
/Courier-BoldOblique starnetISO def
cleartomark
} bind def

%%BeginResource: procset graphviz 0 0
/coord-font-family /Times-Roman def
/default-font-family /Times-Roman def
/coordfont coord-font-family findfont 8 scalefont def

/InvScaleFactor 1.0 def
/set_scale {
	dup 1 exch div /InvScaleFactor exch def
	dup scale
} bind def

% styles
/solid { [] 0 setdash } bind def
/dashed { [9 InvScaleFactor mul dup ] 0 setdash } bind def
/dotted { [1 InvScaleFactor mul 6 InvScaleFactor mul] 0 setdash } bind def
/invis {/fill {newpath} def /stroke {newpath} def /show {pop newpath} def} bind def
/bold { 2 setlinewidth } bind def
/filled { } bind def
/unfilled { } bind def
/rounded { } bind def
/diagonals { } bind def

% hooks for setting color 
/nodecolor { sethsbcolor } bind def
/edgecolor { sethsbcolor } bind def
/graphcolor { sethsbcolor } bind def
/nopcolor {pop pop pop} bind def

/beginpage {	% i j npages
	/npages exch def
	/j exch def
	/i exch def
	/str 10 string def
	npages 1 gt {
		gsave
			coordfont setfont
			0 0 moveto
			(\() show i str cvs show (,) show j str cvs show (\)) show
		grestore
	} if
} bind def

/set_font {
	findfont exch
	scalefont setfont
} def

% draw aligned label in bounding box aligned to current point
/alignedtext {			% width adj text
	/text exch def
	/adj exch def
	/width exch def
	gsave
		width 0 gt {
			text stringwidth pop adj mul 0 rmoveto
		} if
		[] 0 setdash
		text show
	grestore
} def

/boxprim {				% xcorner ycorner xsize ysize
		4 2 roll
		moveto
		2 copy
		exch 0 rlineto
		0 exch rlineto
		pop neg 0 rlineto
		closepath
} bind def

/ellipse_path {
	/ry exch def
	/rx exch def
	/y exch def
	/x exch def
	matrix currentmatrix
	newpath
	x y translate
	rx ry scale
	0 0 1 0 360 arc
	setmatrix
} bind def

/endpage { showpage } bind def
/showpage { } def

/layercolorseq
	[	% layer color sequence - darkest to lightest
		[0 0 0]
		[.2 .8 .8]
		[.4 .8 .8]
		[.6 .8 .8]
		[.8 .8 .8]
	]
def

/layerlen layercolorseq length def

/setlayer {/maxlayer exch def /curlayer exch def
	layercolorseq curlayer 1 sub layerlen mod get
	aload pop sethsbcolor
	/nodecolor {nopcolor} def
	/edgecolor {nopcolor} def
	/graphcolor {nopcolor} def
} bind def

/onlayer { curlayer ne {invis} if } def

/onlayers {
	/myupper exch def
	/mylower exch def
	curlayer mylower lt
	curlayer myupper gt
	or
	{invis} if
} def

/curlayer 0 def

%%EndResource
%%EndProlog
%%BeginSetup
14 default-font-family set_font
1 setmiterlimit
% /arrowlength 10 def
% /arrowwidth 5 def

% make sure pdfmark is harmless for PS-interpreters other than Distiller
/pdfmark where {pop} {userdict /pdfmark /cleartomark load put} ifelse
% make '<<' and '>>' safe on PS Level 1 devices
/languagelevel where {pop languagelevel}{1} ifelse
2 lt {
    userdict (<<) cvn ([) cvn load put
    userdict (>>) cvn ([) cvn load put
} if

%%EndSetup
%%Page: 1 1
%%PageBoundingBox: 36 36 211 156
%%PageOrientation: Portrait
gsave
35 35 176 121 boxprim clip newpath
36 36 translate
0 0 1 beginpage
0 0 translate 0 rotate
0.000 0.000 0.000 graphcolor
10.00 /FreeSans set_font
% clusterdir_010092f914561f4ed3899313fd63b3c7
[ /Rect [ 8 16 166 111 ]
  /Border [ 0 0 0 ]
  /Action << /Subtype /URI /URI (dir_010092f914561f4ed3899313fd63b3c7.html) >>
  /Subtype /Link
/ANN pdfmark
gsave 10 dict begin
0.667 0.071 0.933 sethsbcolor
newpath 8 16 moveto
166 16 lineto
166 111 lineto
8 111 lineto
closepath
fill
0.000 0.000 0.000 sethsbcolor
newpath 8 16 moveto
166 16 lineto
166 111 lineto
8 111 lineto
closepath
stroke
gsave 10 dict begin
87 99 moveto 67.2 -0.5 (ipc_1_25_03_15) alignedtext
end grestore
end grestore
% clusterdir_f569b9b8dc21cdacb33a464cdae970fd
[ /Rect [ 16 24 158 84 ]
  /Border [ 0 0 0 ]
  /Action << /Subtype /URI /URI (dir_f569b9b8dc21cdacb33a464cdae970fd.html) >>
  /Subtype /Link
/ANN pdfmark
gsave 10 dict begin
0.667 0.067 1.000 sethsbcolor
newpath 16 24 moveto
158 24 lineto
158 84 lineto
16 84 lineto
closepath
fill
0.000 0.000 0.000 sethsbcolor
newpath 16 24 moveto
158 24 lineto
158 84 lineto
16 84 lineto
closepath
stroke
end grestore

%	dir_f569b9b8dc21cdacb33a464cdae970fd
gsave 10 dict begin
gsave 10 dict begin
123 47 moveto 36.6 -0.5 (packages) alignedtext
end grestore
end grestore

%	dir_3874edc6fe89abc7699a4e90a506e9bd
[ /Rect [ 24 32 78 68 ]
  /Border [ 0 0 0 ]
  /Action << /Subtype /URI /URI (dir_3874edc6fe89abc7699a4e90a506e9bd.html) >>
  /Subtype /Link
/ANN pdfmark
gsave 10 dict begin
filled
0.000 1.000 1.000 nodecolor
0.000 0.000 1.000 nodecolor
newpath 78 68 moveto
24 68 lineto
24 32 lineto
78 32 lineto
closepath
fill
0.000 1.000 1.000 nodecolor
newpath 78 68 moveto
24 68 lineto
24 32 lineto
78 32 lineto
closepath
stroke
gsave 10 dict begin
0.000 0.000 0.000 nodecolor
51 47 moveto 5.6 -0.5 (ti) alignedtext
end grestore
end grestore
endpage
showpage
grestore
%%PageTrailer
%%EndPage: 1
%%Trailer
%%Pages: 1
end
restore
%%EOF
